advert_date,closing_dates,client,description,eligibility,link
10/09/2021,01/10/2021,SENGKANG TOWN COUNCIL,TERM CONTRACT FOR SUPPLY & DELIVERY OF ESTATE BINS FOR THE PERIOD 1 APR 2022 TO 31 MAR 2024 (EMAIL ADDRESS : ES-21-004-SK@emservices.com.sg),Domestic Equipment & Supplies (EPU/HEQ/10) OR Hardware & Tools (EPU/HWT/10) - $0.5 Million (S4) & above,https://www.emservices.com.sg/wp-content/uploads/2021/09/10.9.2021-SK-Term-Contracts.pdf
10/09/2021,01/10/2021,SENGKANG TOWN COUNCIL,TERM CONTRACT FOR SERVICING & MAINTENANCE OF ALERT ALARM SYSTEM FOR THE PERIOD 1 APR 2022 TO 31 MAR 2024 (EMAIL ADDRESS : BM-21-036-SK@emservices.com.sg),Communication & Security Systems (ME04) OR Fire Prevention & Protection Systems (ME06) - $0.75 Million (L1) & above OR Security Services (EPU/SER/43) - $0.25 Million & above (S3),https://www.emservices.com.sg/wp-content/uploads/2021/09/10.9.2021-SK-Term-Contracts.pdf
10/09/2021,01/10/2021,SENGKANG TOWN COUNCIL,TERM CONTRACT FOR MAINTENANCE AND SERVICING OF ELECTRICALLY & MANUALLY OPERATED ROLLER SHUTTER DOORS AT BIN COMPOUNDS AND CENTRALISED REFUSE CHUTES FOR THE PERIOD 1 APR 2022 TO 31 MAR 2024  (EMAIL ADDRESS : BM-21-035-SK@emservices.com.sg),Doors (CR18) – Single Grade (L1) OR General Building (CW01) - $0.75 Million (C3) & above,https://www.emservices.com.sg/wp-content/uploads/2021/09/10.9.2021-SK-Term-Contracts.pdf
10/09/2021,01/10/2021,SENGKANG TOWN COUNCIL,"TERM CONTRACT FOR MAINTENANCE OF TRANSFER PUMPS, BOOSTER PUMPS, SUBMERSIBLE PUMPS & REFUSE CHUTE FLUSHING SYSTEMS AND RAINWATER HARVESTING SYSTEMS AND IRRIGATION SYSTEMS & WASHING OF RAINWATER HARVESTING TANKS FOR THE PERIOD 1 APR 2022 TO 31 MAR 2024 (EMAIL ADDRESS : PM-21-003-SK@emservices.com.sg)",Mechanical Engineering (ME11) - $0.75 Million (L1) & above,https://www.emservices.com.sg/wp-content/uploads/2021/09/10.9.2021-SK-Term-Contracts.pdf
10/09/2021,01/10/2021,SENGKANG TOWN COUNCIL,TERM CONTRACT FOR MAINTENANCE AND SERVICING OF AIR-CONDITIONING SYSTEM FOR THE PERIOD 1 APR 2022 TO 31 MAR 2024 (EMAIL ADDRESS : BM-21-034-SK@emservices.com.sg),"Air-Conditioning, Refrigeration & Ventilation Works (ME01) - $0.75 Million (L1) & above",https://www.emservices.com.sg/wp-content/uploads/2021/09/10.9.2021-SK-Term-Contracts.pdf
10/09/2021,01/10/2021,SENGKANG TOWN COUNCIL,TERM CONTRACT FOR ELECTRICAL WORKS AND CARPARK LIGHTINGS AND AMENITIES FOR THE PERIOD 1 APR 2022 TO 31 MAR 2024 (EMAIL ADDRESS : BM-21-033-SK@emservices.com.sg),Electrical Engineering (ME05) - $0.75 Million (L1) & above,https://www.emservices.com.sg/wp-content/uploads/2021/09/10.9.2021-SK-Term-Contracts.pdf
10/09/2021,01/10/2021,SENGKANG TOWN COUNCIL,TERM CONTRACT FOR PEST CONTROL FOR THE PERIOD 1 APR 2022 TO 31 MAR 2024 (EMAIL ADDRESS : BM-21-032-SK@emservices.com.sg),Pest Control (FM04) - $0.75 Million (L1) & above,https://www.emservices.com.sg/wp-content/uploads/2021/09/10.9.2021-SK-Term-Contracts.pdf
10/09/2021,01/10/2021,SENGKANG TOWN COUNCIL,"TERM CONTRACT FOR CARPARK, TRAFFIC SIGNS AND ESTATES SIGNBOARDS FOR THE PERIOD 1 APR 2022 TO 31 MAR 2024 (EMAIL ADDRESS : BM-21-031-SK@emservices.com.sg)",Signcraft Installation (CR11) - $0.75 Million (L1) & above,https://www.emservices.com.sg/wp-content/uploads/2021/09/10.9.2021-SK-Term-Contracts.pdf
10/09/2021,01/10/2021,SENGKANG TOWN COUNCIL,TERM CONTRACT FOR PAINTING OF ROAD MARKS FOR THE PERIOD 1 APR 2022 TO 31 MAR 2024 (EMAIL ADDRESS : BM-21-030-SK@emservices.com.sg),Asphalt Works & Road Marking (CR14) - $0.75 Million (L1) & above,https://www.emservices.com.sg/wp-content/uploads/2021/09/10.9.2021-SK-Term-Contracts.pdf
10/09/2021,01/10/2021,SENGKANG TOWN COUNCIL,TERM CONTRACT FOR BUILDING TRADESMEN WORKS FOR THE PERIOD 1 APR 2022 TO 31 MAR 2024 (EMAIL ADDRESS : BM-21-029-SK@emservices.com.sg),General Building (CW01) - $0.75 Million (C3) & above,https://www.emservices.com.sg/wp-content/uploads/2021/09/10.9.2021-SK-Term-Contracts.pdf
10/09/2021,01/10/2021,JALAN BESAR TOWN COUNCIL,REPAIRS AND REDECORATION TO 24 BLOCKS AT GEYLANG / KALLANG BAHRU AND UPPER BOON KENG ROAD FOR JALAN BESAR TOWN COUNCIL (CONTRACT PERIOD – 14 MONTHS)  (EMAIL ADDRESS : RR-21-021-JB@emservices.com.sg),Repairs & Redecoration (CR09) - $7.5 Million & above (L4) (Tenderers are required to furnish a joint warranty for the paintwork),https://www.emservices.com.sg/wp-content/uploads/2021/09/10.9.2021.pdf
10/09/2021,01/10/2021,JALAN BESAR TOWN COUNCIL,RESTORATION OF BLOCK 70A GEYLANG BAHRU (DAMAGED BY FIRE) FOR JALAN BESAR TOWN COUNCIL (CONTRACT PERIOD – 4 MONTHS) (EMAIL ADDRESS : AA-21-017-JB@emservices.com.sg),General Building (CW01) - $4.5 Million & above (C1),https://www.emservices.com.sg/wp-content/uploads/2021/09/10.9.2021.pdf
10/09/2021,01/10/2021,SEMBAWANG TOWN COUNCIL,EXTENSION OF AWNINGS TO 7 BLOCKS AT WOODLANDS STREET 81 / 82 / 83 FOR SEMBAWANG TOWN COUNCIL (CONTRACT PERIOD – 6 MONTHS) (EMAIL ADDRESS : AA-21-016-SB@emservices.com.sg),General Building (CW01) - $0.75 Million & above (C3),https://www.emservices.com.sg/wp-content/uploads/2021/09/10.9.2021.pdf
03/09/2021,24/09/2021,SEMBAWANG TOWN COUNCIL,TERM CONTRACT FOR ENFORCEMENT WORKS AT COMMON PROPERTY AND PROVISION OF SECURITY SERVICES FOR THE PERIOD 1 APR 2022 TO 31 MAR 2025 (EMAIL ADDRESS : BM-21-028-SB@emservices.com.sg),Security Services (EPU/SER/43) - $0.5 Million (S4) & above,https://www.emservices.com.sg/wp-content/uploads/2021/09/3.9.2021-Bulk-Term-Contracts.pdf
03/09/2021,24/09/2021,"TAMPINES, TANJONG PAGAR AND WEST COAST TOWN COUNCILS","TERM CONTRACT FOR SUPPLY, PRINTING, PRESSURE SEALING & MAILING OF STANDARD NOTICES FOR THE PERIOD 1 APR 2022 TO 31 MAR 2024/2025 (EMAIL ADDRESS : ES-21-003-TC@emservices.com.sg)",Stationery & Printing & Photocopying Services (EPU/STA/10) - $0.5 Million (S4) & above,https://www.emservices.com.sg/wp-content/uploads/2021/09/3.9.2021-Bulk-Term-Contracts.pdf
03/09/2021,24/09/2021,PASIR RIS-PUNGGOL TOWN COUNCIL,TERM CONTRACT FOR SUPPLY & DELIVERY OF ESTATE BINS FOR THE PERIOD 1 APR 2022 TO 31 MAR 2024 (EMAIL ADDRESS : ES-21-002-PRPG@emservices.com.sg),Domestic Equipment & Supplies (EPU/HEQ/10) OR Hardware & Tools (EPU/HWT/10) - $0.5 Million (S4) & above,https://www.emservices.com.sg/wp-content/uploads/2021/09/3.9.2021-Bulk-Term-Contracts.pdf
03/09/2021,28/09/2021,TAMPINES TOWN COUNCIL,"TERM CONTRACT FOR CONSERVANCY & CLEANING WORKS (ZONES CG, TL & TW) FOR THE PERIOD 1 APR 2022 TO 31 MAR 2025  (EMAIL ADDRESS : CON-21-009-TM@emservices.com.sg)","Housekeeping, Cleansing, Desilting & Conservancy Service (FM02) - $7.5 Million (L4) & above AND Minimum Clean Mark Silver Award under “NEA Enhanced Clean Mark Accreditation Scheme”",https://www.emservices.com.sg/wp-content/uploads/2021/09/3.9.2021-Bulk-Term-Contracts.pdf
03/09/2021,28/09/2021,HOLLAND-BUKIT PANJANG TOWN COUNCIL,"TERM CONTRACT FOR CONSERVANCY & CLEANING WORKS (ZONES BP, CW & ZH) FOR THE PERIOD 1 APR 2022 TO 31 MAR 2025 (EMAIL ADDRESS : CON-21-008-HBP@emservices.com.sg)","Housekeeping, Cleansing, Desilting & Conservancy Service (FM02) - $7.5 Million (L4) & above AND Minimum Clean Mark Silver Award under “NEA Enhanced Clean Mark Accreditation Scheme”",https://www.emservices.com.sg/wp-content/uploads/2021/09/3.9.2021-Bulk-Term-Contracts.pdf
03/09/2021,24/09/2021,HOLLAND-BUKIT PANJANG AND TAMPINES TOWN COUNCILS,TERM CONTRACT FOR MAINTENANCE OF COIN OPERATED WATER DISPENSERS FOR THE PERIOD 1 APR 2022 TO 31 MAR 2025 (EMAIL ADDRESS : BM-21-027-TC@emservices.com.sg),Mechanical Engineering (ME11) OR Plumbing & Sanitary Works (ME12) - $0.75 Million & above (L1) OR Experienced contractor with relevant track record,https://www.emservices.com.sg/wp-content/uploads/2021/09/3.9.2021-Bulk-Term-Contracts.pdf
03/09/2021,24/09/2021,PASIR RIS-PUNGGOL TOWN COUNCIL,"TERM CONTRACT FOR THE MAINTENANCE OF TRANSFER & DIVERTER PUMPS, BOOSTER PUMPS, SUBMERSIBLE PUMPS AND RAINWATER HARVESTING SYSTEMS AND IRRIGATION SYSTEMS & WASHING OF RAINWATER HARVESTING TANKS FOR THE PERIOD 1 APR 2022 TO 31 MAR 2024 (EMAIL ADDRESS : PM-21-002-PRPG@emservices.com.sg)",Mechanical Engineering (ME11) - $1.5 Million (L2) & above,https://www.emservices.com.sg/wp-content/uploads/2021/09/3.9.2021-Bulk-Term-Contracts.pdf
03/09/2021,24/09/2021,TAMPINES TOWN COUNCIL,"TERM CONTRACT FOR THE MAINTENANCE OF TRANSFER & DIVERTER PUMPS, BOOSTER PUMPS, SUBMERSIBLE PUMPS AND REFUSE CHUTE FLUSHING SYSTEMS FOR THE PERIOD 1 APR 2022 TO 31 MAR 2025 (EMAIL ADDRESS : PM-21-001-TM@emservices.com.sg)",Mechanical Engineering (ME11) - $0.75 Million (L1) & above,https://www.emservices.com.sg/wp-content/uploads/2021/09/3.9.2021-Bulk-Term-Contracts.pdf
03/09/2021,24/09/2021,TANJONG PAGAR TOWN COUNCIL,TERM CONTRACT FOR MAINTENANCE OF RECYCLABLE WASTE COLLECTION SYSTEM FOR THE PERIOD 1 APR 2022 TO 31 MAR 2024 (EMAIL ADDRESS : BM-21-026-TP@emservices.com.sg),"Mechanical Engineering (ME11) OR Mechanical Equipment, Plant & Machinery (SY08) - $0.75 Million (L1) & above",https://www.emservices.com.sg/wp-content/uploads/2021/09/3.9.2021-Bulk-Term-Contracts.pdf
03/09/2021,24/09/2021,PASIR RIS-PUNGGOL TOWN COUNCIL,TERM CONTRACT FOR COMPREHENSIVE MAINTENANCE OF REFUSE HANDLING EQUIPMENT AND RECYCLABLE WASTE COLLECTION SYSTEM FOR THE PERIOD 1 APR 2022 TO 31 MAR 2024 (EMAIL ADDRESS : BM-21-025-PRPG@emservices.com.sg),"Mechanical Engineering (ME11) OR Mechanical Equipment, Plant & Machinery (SY08) - $1.5 Million (L2) & above",https://www.emservices.com.sg/wp-content/uploads/2021/09/3.9.2021-Bulk-Term-Contracts.pdf
03/09/2021,24/09/2021,PASIR RIS-PUNGGOL TOWN COUNCIL,TERM CONTRACT FOR MAINTENANCE OF ELECTRICALLY AND MANUALLY OPERATED ROLLER DOORS AT BIN COMPOUND AND CENTRAL REFUSE CHUTE FOR THE PERIOD 1 APR 2022 TO 31 MAR 2024 (EMAIL ADDRESS :  BM-21-024-PRPG@emservices.com.sg),Doors (CR18) – Single Grade (L1) OR General Building (CW01) - $0.75 Million (C3) & above,https://www.emservices.com.sg/wp-content/uploads/2021/09/3.9.2021-Bulk-Term-Contracts.pdf
03/09/2021,24/09/2021,TAMPINES AND PASIR RIS-PUNGGOL TOWN COUNCILS,TERM CONTRACT FOR MAINTENANCE AND SERVICING OF AIR-CONDITIONING SYSTEM FOR THE PERIOD 1 APR 2022 TO 31 MAR 2024/2025 (EMAIL ADDRESS : BM-21-023-TC@emservices.com.sg),"Air-Conditioning, Refrigeration & Ventilation Works (ME01) - $0.75 Million (L1) & above",https://www.emservices.com.sg/wp-content/uploads/2021/09/3.9.2021-Bulk-Term-Contracts.pdf
03/09/2021,24/09/2021,"EAST COAST, PASIR RIS-PUNGGOL AND TAMPINES TOWN COUNCILS",TERM CONTRACT FOR SERVICING & MAINTENANCE OF ALERT ALARM SYSTEM FOR THE PERIOD 1 APR 2022 TO 31 MAR 2024/2025 (EMAIL ADDRESS : BM-21-022-TC@emservices.com.sg),Communication & Security Systems (ME04) OR Fire Prevention & Protection Systems (ME06) - $0.75 Million (L1) & above OR Security Services (EPU/SER/43) - $0.25 Million & above (S3),https://www.emservices.com.sg/wp-content/uploads/2021/09/3.9.2021-Bulk-Term-Contracts.pdf
03/09/2021,24/09/2021,TAMPINES AND PASIR RIS-PUNGGOL TOWN COUNCILS,TERM CONTRACT FOR ELECTRICAL WORKS AND MAINTENANCE OF LIGHTINGS TO CARPARKS AND AMENITIES FOR THE PERIOD 1 APR 2022 TO 31 MAR 2024/2025 (EMAIL ADDRESS : BM-21-021-TC@emservices.com.sg),Electrical Engineering (ME05) - $4.5 Million (L3) & above,https://www.emservices.com.sg/wp-content/uploads/2021/09/3.9.2021-Bulk-Term-Contracts.pdf
03/09/2021,24/09/2021,TANJONG PAGAR TOWN COUNCIL,TERM CONTRACT FOR MOSQUITO CONTROL FOR THE PERIOD 1 APR 2022 TO 31 MAR 2024 (EMAIL ADDRESS : BM-21-020-TP@emservices.com.sg),Pest Control (FM04) - $1.5 Million (L2) & above,https://www.emservices.com.sg/wp-content/uploads/2021/09/3.9.2021-Bulk-Term-Contracts.pdf
03/09/2021,24/09/2021,TAMPINES AND PASIR RIS-PUNGGOL TOWN COUNCILS,TERM CONTRACT FOR PEST CONTROL FOR THE PERIOD 1 APR 2022 TO 31 MAR 2024/2025 (EMAIL ADDRESS : BM-21-019-TC@emservices.com.sg),Pest Control (FM04) - $1.5 Million (L2) & above,https://www.emservices.com.sg/wp-content/uploads/2021/09/3.9.2021-Bulk-Term-Contracts.pdf
03/09/2021,24/09/2021,PASIR RIS-PUNGGOL TOWN COUNCIL,TERM CONTRACT FOR PAINTING OF ROAD MARKS FOR THE PERIOD 1 APR 2022 TO 31 MAR 2024 (EMAIL ADDRESS : BM-21-018-PRPG@emservices.com.sg),Asphalt Works & Road Marking (CR14) - $0.75 Million (L1) & above,https://www.emservices.com.sg/wp-content/uploads/2021/09/3.9.2021-Bulk-Term-Contracts.pdf
03/09/2021,24/09/2021,PASIR RIS-PUNGGOL TOWN COUNCIL,"TERM CONRACT FOR SUPPLY & INSTALLATION OF CARPARK, TRAFFIC SIGNS AND ESTATE SIGNBOARDS FOR THE PERIOD 1 APR 2022 TO 31 MAR 2024 (EMAIL ADDRESS : BM-21-017-PRPG@emservices.com.sg)",Signcraft Installation (CR11) - $0.75 Million (L1) & above,https://www.emservices.com.sg/wp-content/uploads/2021/09/3.9.2021-Bulk-Term-Contracts.pdf
03/09/2021,24/09/2021,TAMPINES AND PASIR RIS-PUNGGOL TOWN COUNCILS,TERM CONTRACT FOR BUILDING TRADESMEN WORKS FOR THE PERIOD  1 APR 2022 TO 31 MAR 2024/2025 (EMAIL ADDRESS : BM-21-016-TC@emservices.com.sg),General Building (CW01) - $4.5 Million (C1) & above,https://www.emservices.com.sg/wp-content/uploads/2021/09/3.9.2021-Bulk-Term-Contracts.pdf
27/08/2021,17/09/2021,TANJONG PAGAR TOWN COUNCIL,SUPPLY AND INSTALLATION OF SAFETY PROVISIONS AT ROOFTOP OF EXISTING HDB BUILDINGS FOR TANJONG PAGAR TOWN COUNCIL (CONTRACT PERIOD – 12 MONTHS) (EMAIL ADDRESS : AA-21-015-TP@emservices.com.sg),Waterproofing Installation (CR13) - $4.5 Million & above (L3),https://www.emservices.com.sg/wp-content/uploads/2021/08/27.8.2021.pdf
27/08/2021,17/09/2021,WEST COAST TOWN COUNCIL,REPAIRS AND REDECORATION TO 20 BLOCKS AND IMPROVEMENT TO TOILETS (MARKET / FOOD CENTRE) IN BOON  LAY DIVISION FOR WEST COAST TOWN COUNCIL (CONTRACT PERIOD – 11 MONTHS) (EMAIL ADDRESS : RR-21-019-WC@emservices.com.sg),Repairs & Redecoration (CR09) - $4.5 Million & above (L3) (Tenderers are required to furnish a joint warranty for the paintwork),https://www.emservices.com.sg/wp-content/uploads/2021/08/27.8.2021.pdf
27/08/2021,17/09/2021,JALAN BESAR TOWN COUNCIL,REPAIRS & REDECORATION AND FLOOD ALLEVIATION WORKS FOR 9 BLOCKS AT UPPER ALJUNIED LANE / JOO SENG ROAD FOR JALAN BESAR TOWN COUNCIL (CONTRACT PERIOD – 10 MONTHS) (EMAIL ADDRESS : RR-21-020-JB@emservices.com.sg),Repairs & Redecoration (CR09) - $4.5 Million & above (L3) (Tenderers are required to furnish a joint warranty for the paintwork),https://www.emservices.com.sg/wp-content/uploads/2021/08/27.8.2021.pdf
27/08/2021,24/09/2021,JALAN BESAR TOWN COUNCIL,NEIGHBOURHOOD RENEWAL PROGRAMME (BATCH 11) AND REPAIRS & REDECORATION FOR 6 BLOCKS AT JOO SENG ROAD FOR JALAN BESAR TOWN COUNCIL (CONTRACT PERIOD – 12 MONTHS) (EMAIL ADDRESS : NRP-21-009-JB@emservices.com.sg),General Building (CW01) - $4.5 Million & above (C1),https://www.emservices.com.sg/wp-content/uploads/2021/08/27.8.2021.pdf
27/08/2021,04/10/2021,MARSILING-YEW TEE TOWN COUNCIL,NEIGHBOURHOOD RENEWAL PROGRAMME (BATCH 11) AND REPAIRS & REDECORATION TO 30 BLOCKS AT CHOA CHU KANG DRIVE / NORTH 5 & 6 / STREET 54 FOR MARSILING-YEW TEE TOWN COUNCIL (CONTRACT PERIOD – 24 MONTHS FOR NRP / 20 MONTHS FOR R & R)  (EMAIL ADDRESS : NRP-21-008-MYT@emservices.com.sg),General Building (CW01) - $15 Million & above (B2),https://www.emservices.com.sg/wp-content/uploads/2021/08/27.8.2021.pdf
20/08/2021,15/09/2021,TAMPINES TOWN COUNCIL,PERIODIC FAÇADE INSPECTION AND REPAIRS TO 107 BLOCKS IN TAMPINES CHANGKAT DIVISION FOR TAMPINES TOWN COUNCIL (CONTRACT PERIOD – 14 MONTHS) (EMAIL ADDRESS : RR-21-018-TM@emservices.com.sg),Repairs & Redecoration (CR09) - $1.5 Million & above (L2),https://www.emservices.com.sg/wp-content/uploads/2021/08/20.8.2021.pdf
20/08/2021,10/09/2021,WEST COAST TOWN COUNCIL,TERM CONTRACT FOR INSPECTION AND REPAIRS OF EXTERNAL FAÇADE AND ROOF FOR THE PERIOD 1 JAN 2022 TO 31 MAR 2024 FOR WEST COAST TOWN COUNCIL  (EMAIL ADDRESS : BM-21-015-WC@emservices.com.sg),General Building (CW01) - $0.75 Million & above (C3),https://www.emservices.com.sg/wp-content/uploads/2021/08/20.8.2021.pdf
20/08/2021,10/09/2021,WEST COAST TOWN COUNCIL,"ELECTRICAL REWIRING TO 59 BLOCKS AT JURONG WEST, TEBAN GARDENS ROAD AND PANDAN GARDENS FOR WEST COAST TOWN COUNCIL (CONTRACT PERIOD – 30 MONTHS) (EMAIL ADDRESS : CYCL-21-016-WC@emservices.com.sg)",Electrical Engineering (ME05) - $15 Million & above (L5),https://www.emservices.com.sg/wp-content/uploads/2021/08/20.8.2021.pdf
13/08/2021,03/09/2021,SENGKANG TOWN COUNCIL,SUPPLY OF ELECTRICITY TO CONTESTABLE PREMIES FOR THE PERIOD 1 JAN 2022 TO 31 DEC 2023 FOR SENGKANG TOWN COUNCIL (EMAIL ADDRESS : BM-21-014-SK@emservices.com.sg),All electricity retailers approved by Energy Market Authority,https://www.emservices.com.sg/wp-content/uploads/2021/08/13.8.2021-SKTC.pdf
13/08/2021,03/09/2021,TAMPINES TOWN COUNCIL,SUPPLY AND INSTALLATION OF SAFETY PROVISIONS AT ROOFTOP OF EXISTING HDB BUILDINGS FOR TAMPINES TOWN COUNCIL (CONTRACT PERIOD – 18 MONTHS) (EMAIL ADDRESS : AA-21-014-TM@emservices.com.sg),Waterproofing Installation (CR13) - $4.5 Million & above (L3),https://www.emservices.com.sg/wp-content/uploads/2021/08/13.8.2021.pdf
06/08/2021,01/09/2021,TAMPINES TOWN COUNCIL,REPAIRS AND REDECORATION TO 39 BLOCKS IN TAMPINES EAST & CENTRAL DIVISIONS AND COOL COATING PILOT PROGRAMME IN TAMPINES CENTRAL & WEST DIVISIONS FOR TAMPINES TOWN COUNCIL (CONTRACT PERIOD – 18 MONTHS) (EMAIL ADDRESS : RR-21-017-TM@emservices.com.sg),Repairs & Redecoration (CR09) - $7.5 Million & above (L4) (Tenderers are required to furnish a joint warranty for the paintwork),https://www.emservices.com.sg/wp-content/uploads/2021/08/6.8.2021.pdf
06/08/2021,27/08/2021,PASIR RIS-PUNGGOL TOWN COUNCIL,TERM CONTRACT FOR THE PROVISION OF WORKMEN FOR THE PERIOD 1 JAN 2022 TO 31 DEC 2023 FOR PASIR RIS-PUNGGOL TOWN COUNCIL  (EMAIL ADDRESS :  CON-21-007-PRPG@emservices.com.sg),"Housekeeping, Cleansing, Desilting & Conservancy Service (FM02) - $0.75 Million & above (L1)",https://www.emservices.com.sg/wp-content/uploads/2021/08/6.8.2021.pdf
06/08/2021,27/08/2021,PASIR RIS-PUNGGOL TOWN COUNCIL,REPLACEMENT OF FIRE PROTECTION SYSTEMS (PRESSURE TANKS & FIRE DETECTORS) FOR PASIR RIS-PUNGGOL TOWN COUNCIL (CONTRACT PERIOD – 9 MONTHS) (EMAIL ADDRESS : CYCL-21-015-PRPG@emservices.com.sg),Fire Prevention & Protection Systems (ME06) - $0.75 Million & above (L1),https://www.emservices.com.sg/wp-content/uploads/2021/08/6.8.2021.pdf
06/08/2021,27/08/2021,"EAST COAST, HOLLAND-BUKIT PANJANG, JALAN BESAR, PASIR RIS-PUNGGOL, BISHAN-TOA PAYOH, MARSILING-YEW TEE, SEMBAWANG, NEE SOON, TAMPINES, TANJONG PAGAR & WEST COAST TOWN COUNCILS","SUPPLY OF ELECTRICITY TO CONTESTABLE PREMIES FOR THE PERIOD 1 JAN 2022 TO 31 DEC 2023 FOR EAST COAST, HOLLAND-BUKIT PANJANG, JALAN BESAR, MARSILING-YEW TEE, NEE SOON, PASIR RIS-PUNGGOL, SEMBAWANG, TAMPINES, TANJONG PAGAR, WEST COAST AND BISHAN-TOA PAYOH TOWN COUNCILS (EMAIL ADDRESS : BM-21-013-TC@emservices.com.sg)",All electricity retailers approved by Energy Market Authority,https://www.emservices.com.sg/wp-content/uploads/2021/08/6.8.2021-11-TCs.pdf
30/07/2021,23/08/2021,TAMPINES TOWN COUNCIL,REPLACEMENT AND COMPREHENSIVE MAINTENANCE OF ALERT ALARM SYSTEM (AAS) AT BLOCK 494D AND 494E TAMPINES STREET 43 FOR TAMPINES TOWN COUNCIL (CONTRACT PERIOD – 9 MONTHS) (EMAIL ADDRESS : CYCL-21-014-TM@emservices.com.sg),Communication & Security Systems (ME04) - $4.5 Million & above (L3) OR Experienced Nurse Call System Contractors with relevant track records,https://www.emservices.com.sg/wp-content/uploads/2021/07/30.7.2021.pdf
30/07/2021,23/08/2021,HOLLAND-BUKIT PANJANG TOWN COUNCIL,TERM CONTRACT FOR PROVISION OF MOBILE VIDEO SURVEILLANCE SYSTEM AND SERVICES FOR HOLLAND-BUKIT PANJANG TOWN COUNCIL (CONTRACT PERIOD – 24 MONTHS) (EMAIL ADDRESS : BM-21-012-HBP@emservices.com.sg),Communication & Security Systems (ME04) - $1.5 Million & above (L2),https://www.emservices.com.sg/wp-content/uploads/2021/07/30.7.2021.pdf
30/07/2021,23/08/2021,PASIR RIS-PUNGGOL TOWN COUNCIL,TERM CONTRACT FOR PROVISION OF MOBILE VIDEO SURVEILLANCE SYSTEM AND SERVICES FOR PASIR RIS-PUNGGOL TOWN COUNCIL (CONTRACT PERIOD – 24 MONTHS) (EMAIL ADDRESS : BM-21-011-PRPG@emservices.com.sg),Communication & Security Systems (ME04) - $1.5 Million & above (L2),https://www.emservices.com.sg/wp-content/uploads/2021/07/30.7.2021.pdf
30/07/2021,23/08/2021,PASIR RIS-PUNGGOL TOWN COUNCIL,CONSTRUCTION OF COVERED WALKWAY FROM BLOCK 327B SUMANG WALK TO PUNGGOL COVE PRIMARY SCHOOL FOR PASIR RIS-PUNGGOL TOWN COUNCIL (CONTRACT PERIOD – 6 MONTHS) (EMAIL ADDRESS : AA-21-013-PRPG@emservices.com.sg),General Building (CW01) - $0.75 Million & above (C3),https://www.emservices.com.sg/wp-content/uploads/2021/07/30.7.2021.pdf
23/07/2021,13/08/2021,JALAN BESAR AND WEST COAST TOWN COUNCILS,TERM CONTRACT FOR RAT CULLING SERVICES FOR THE PERIOD 1 NOV 2021 TO 31 OCT 2023 FOR JALAN BESAR AND WEST COAST TOWN COUNCILS (EMAIL ADDRESS : BM-21-010-TC@emservices.com.sg),Pest Control (FM04) - $1.5 Million & above (L2),https://www.emservices.com.sg/wp-content/uploads/2021/07/23.7.2021.pdf
23/07/2021,13/08/2021,EAST COAST TOWN COUNCIL,PRE-QUALIFICATION FOR APPOINTMENT OF TOWN COUNCIL COORDINATING ARCHITECT / ENGINEER FOR EAST COAST TOWN COUNCIL  (EMAIL ADDRESS : PQ-21-003-EC@emservices.com.sg),"Only Architectural or Engineering Consultancy firms registered under BCA's Public Sector Panels of Consultants (PSPC), are eligible to participate.",https://www.emservices.com.sg/wp-content/uploads/2021/07/23.7.2021-PQ-ECTC.pdf
16/07/2021,12/08/2021,TAMPINES TOWN COUNCIL,PERIODIC FAÇADE INSPECTION AND REPAIR TO 154 BLOCKS IN TAMPINES NORTH DIVISION  FOR TAMPINES TOWN COUNCIL (CONTRACT PERIOD – 14 MONTHS) (EMAIL ADDRESS : RR-21-016-TM@emservices.com.sg),Repairs & Redecoration (CR09) - $1.5 Million & above (L2),https://www.emservices.com.sg/wp-content/uploads/2021/07/16.7.2021.pdf
16/07/2021,06/08/2021,WEST COAST TOWN COUNCIL,ELECTRICAL REWIRING TO 14 BLOCKS AT TELOK BLANGAH DRIVE / HEIGHTS FOR WEST COAST TOWN COUNCIL (CONTRACT PERIOD – 13 MONTHS) (EMAIL ADDRESS : CYCL-21-013-WC@emservices.com.sg),Electrical Engineering (ME05) - $4.5 Million & above (L3),https://www.emservices.com.sg/wp-content/uploads/2021/07/16.7.2021.pdf
09/07/2021,30/07/2021,MARSILING-YEW TEE TOWN COUNCIL,PRE-QUALIFICATION FOR MARSILING-YEW TEE TOWN COUNCIL’S PANEL OF ARCHITECT CONSULTANTS FROM 1 JAN 2022 TO 31 DEC 2024 (WITH AN OPTION TO EXTEND FOR ANOTHER YEAR) (EMAIL ADDRESS : PQ-21-002-MYT@emservices.com.sg),"Only architectural firms whose principal architects are registered architects with the Board of Architects, Singapore are eligible to participate.",https://www.emservices.com.sg/wp-content/uploads/2021/07/9.7.2021-PQ.pdf
09/07/2021,06/08/2021,HOLLAND-BUKIT PANJANG TOWN COUNCIL,"CONSTRUCTION OF COVERED WALKWAYS / COMMUNITY GARDENS / ROOF OVER EXISTING RAMPS AND STAIRCASE AT ZHENGHUA, CASHEW AND BUKIT PANJANG DIVISIONS FOR HOLLAND-BUKIT PANJANG TOWN COUNCIL (EMAIL ADDRESS : AA-21-012-HBP@emservices.com.sg)",General Building (CW01) - $4 Million & above (C1),https://www.emservices.com.sg/wp-content/uploads/2021/07/9.7.2021-HBP.pdf
02/07/2021,02/08/2021,EAST COAST TOWN COUNCIL,"TERM CONTRACT FOR CONSERVANCY AND CLEANING WORKS IN ZONES 1, 2, 3 AND 4 FOR THE PERIOD 1 NOV 2021 TO 31 OCT 2024 FOR EAST COAST TOWN COUNCIL (EMAIL ADDRESS : CON-21-005-EC@emservices.com.sg)","1. PART A – General Cleaning (Residential/Commercial)  2. PART B – General Cleaning (Market/Hawker Centre) 3. PART C – High Impact Cleaning (Market/Hawker Centre)  PART A + PART B + PART C Housekeeping, Cleansing, Desilting & Conservancy Service (FM02) - $6.5 Million & above (L4) AND Minimum Clean Mark Silver Award under “NEA Enhanced Clean Mark Accreditation Scheme” PART B + PART C Housekeeping, Cleansing, Desilting & Conservancy Service (FM02) - $0.65 Million & above (L1) AND Minimum Clean Mark Silver Award under “NEA Enhanced Clean Mark Accreditation Scheme” PART B ONLY OR PART C ONLY  Relevant experience in Cleaning Services industry - $0.65 Million & above (L1)",https://www.emservices.com.sg/wp-content/uploads/2021/07/2.7.2021.pdf
02/07/2021,23/07/2021,MARSILING-YEW TEE TOWN COUNCIL,"TERM CONTRACT FOR CONSERVANCY AND CLEANING WORKS IN YEW TEE (N), YEW TEE (S) AND LIMBANG (LB) FOR THE PERIOD 1 OCT 2021 TO 30 SEP 2024 (3 YEARS) FOR MARSILING-YEW TEE TOWN COUNCIL (EMAIL ADDRESS : CON-21-004-MYT@emservices.com.sg)","Housekeeping, Cleansing, Desilting & Conservancy Service (FM02) - $13 Million & above (L5) AND Minimum Clean Mark Silver Award under “NEA Enhanced Clean Mark Accreditation Scheme”",https://www.emservices.com.sg/wp-content/uploads/2021/07/2.7.2021.pdf
02/07/2021,23/07/2021,WEST COAST TOWN COUNCIL,CONSTRUCTION OF HIGH AND LOW COVERED LINKWAYS IN NANYANG DIVISION FOR WEST COAST TOWN COUNCIL (CONTRACT PERIOD – 10 MONTHS)  (EMAIL ADDRESS : AA-21-011-WC@emservices.com.sg),General Building (CW01) - $1.3 Million & above (C2),https://www.emservices.com.sg/wp-content/uploads/2021/07/2.7.2021.pdf
02/07/2021,23/07/2021,EAST COAST TOWN COUNCIL,OFFICE RENOVATION WORKS AT BLOCK 206 BEDOK NORTH STREET 1 (PHASE 2) FOR EAST COAST TOWN COUNCIL (CONTRACT PERIOD – 3 MONTHS)  (EMAIL ADDRESS : AA-21-010-EC@emservices.com.sg),Interior Decoration & Finishing Works (CR06) - $1.3 Million & above (L2),https://www.emservices.com.sg/wp-content/uploads/2021/07/2.7.2021.pdf
25/06/2021,21/07/2021,EAST COAST TOWN COUNCIL,"TERM CONTRACT FOR GRASSCUTTING, HORTICULTURE AND ARBORICULTURE MAINTENANCE WORKS FOR THE PERIOD 1 OCT 2021 TO 30 SEP 2024 FOR EAST COAST TOWN COUNCIL (EMAIL ADDRESS : GH-21-003-EC@emservices.com.sg)",Landscaping (FM03) - $4 Million & above (L3),https://www.emservices.com.sg/wp-content/uploads/2021/06/25.6.2021.pdf
18/06/2021,09/07/2021,"EAST COAST, PASIR RIS-PUNGGOL AND TAMPINES TOWN COUNCILS","TERM CONTRACT FOR RAT CULLING SERVICES FOR THE PERIOD 1 NOV 2021 TO 31 OCT 2023 FOR EAST COAST, PASIR RIS-PUNGGOL AND TAMPINES TOWN COUNCILS  (EMAIL ADDRESS : BM-21-009-TC@emservices.com.sg)",Pest Control (FM04) - $1.3 Million & above (L2),https://www.emservices.com.sg/wp-content/uploads/2021/06/18.6.2021.pdf
18/06/2021,23/07/2021,SEMBAWANG TOWN COUNCIL,NEIGHBOURHOOD RENEWAL PROGRAMME (NRP) TO 13 BLOCKS AND 2 MSCPS AT WOODLANDS AVE 9 / ST 81 / ST 83 FOR SEMBAWANG TOWN COUNCIL (CONTRACT PERIOD – 18 MONTHS) (EMAIL ADDRESS : NRP-21-007-SB@emservices.com.sg),General Building (CW01) - $13 Million & above (B2),https://www.emservices.com.sg/wp-content/uploads/2021/06/18.6.2021.pdf
11/06/2021,02/07/2021,WEST COAST TOWN COUNCIL,REPLACEMENT OF FIBRE-GLASS REINFORCED POLYESTER (FRP/GRP) WATER TANKS TO 13 BLOCKS AT BOON LAY AND AYER RAJAH-GEK POH DIVISIONS FOR WEST COAST TOWN COUNCIL (CONTRACT PERIOD – 10 MONTHS) (EMAIL ADDRESS : CYCL-21-012-WC@emservices.com.sg),Mechanical Engineering (ME11) OR Plumbing & Sanitary Works (ME12) - $1.3 Million & above (L2),https://www.emservices.com.sg/wp-content/uploads/2021/06/11.6.2021.pdf
11/06/2021,02/07/2021,PASIR RIS-PUNGGOL TOWN COUNCIL,REPAIRS AND REDECORATION TO 24 BLOCKS AT PASIR RIS STREET 51 / DRIVE 1 FOR PASIR RIS-PUNGGOL TOWN COUNCIL (CONTRACT PERIOD – 12 MONTHS)  (EMAIL ADDRESS : RR-21-015-PRPG@emservices.com.sg),Repairs & Redecoration (CR09) - $4 Million & above (L3) (Tenderers are required to furnish a joint warranty for the paintwork),https://www.emservices.com.sg/wp-content/uploads/2021/06/11.6.2021.pdf
11/06/2021,02/07/2021,NEE SOON TOWN COUNCIL,REPAIRS AND REDECORATION TO 27 BLOCKS AT CHONG PANG AND NEE SOON CENTRAL DIVISIONS FOR NEE SOON TOWN COUNCIL (CONTRACT PERIOD – 14 MONTHS [PHASE 1] / 3 MONTHS [PHASE 2])  (EMAIL ADDRESS : RR-21-014-NS@emservices.com.sg),Repairs & Redecoration (CR09) - $4 Million & above (L3) (Tenderers are required to furnish a joint warranty for the paintwork),https://www.emservices.com.sg/wp-content/uploads/2021/06/11.6.2021.pdf
04/06/2021,25/06/2021,JALAN BESAR TOWN COUNCIL,REROOFING TO 6 BLOCKS IN KAMPONG GLAM DIVISION FOR JALAN BESAR TOWN COUNCIL (CONTRACT PERIOD – 8 MONTHS)  (EMAIL ADDRESS : RFG-21-009-JB@emservices.com.sg),Waterproofing Installation (CR13) - $1.3 Million & above (L2),https://www.emservices.com.sg/wp-content/uploads/2021/06/4.6.2021.pdf
04/06/2021,30/06/2021,TAMPINES TOWN COUNCIL,TERM CONTRACT FOR PROVISION OF MOBILE VIDEO SURVEILLANCE SYSTEM AND SERVICES FOR TAMPINES TOWN COUNCIL (CONTRACT PERIOD – 24 MONTHS) (EMAIL ADDRESS : BM-21-008-TM@emservices.com.sg),Communication & Security Systems (ME04) - $1.3 Million & above (L2) AND Experienced CCTV Contractors with relevant track records,https://www.emservices.com.sg/wp-content/uploads/2021/06/4.6.2021.pdf
04/06/2021,09/07/2021,TAMPINES TOWN COUNCIL,ELECTRICAL LOAD UPGRADING FOR 30 BLOCKS AT TAMPINES AVENUE 9 / STREET 43/45 FOR TAMPINES TOWN COUNCIL (CONTRACT PERIOD – 30 MONTHS) (EMAIL ADDRESS : ELU-21-006-TM@emservices.com.sg),General Building (CW01) - $13 Million & above (B2) OR Electrical Engineering (ME05) - $13 Million & above (L5),https://www.emservices.com.sg/wp-content/uploads/2021/06/4.6.2021.pdf
04/06/2021,25/06/2021,WEST COAST TOWN COUNCIL,SUPPLY AND INSTALLATION OF SAFETY PROVISIONS AT ROOFTOPS OF EXISTING HDB BUILDINGS FOR WEST COAST TOWN COUNCIL (CONTRACT PERIOD – 18 MONTHS) (EMAIL ADDRESS : AA-21-008-WC@emservices.com.sg),Waterproofing Installation (CR13) - $4 Million & above (L3),https://www.emservices.com.sg/wp-content/uploads/2021/06/4.6.2021.pdf
28/05/2021,18/06/2021,NEE SOON TOWN COUNCIL,ANCILLARY WORKS TO NEIGHBOURHOOD RENEWAL PROGRAMME AT YISHUN STREET 81 / RING / AVENUE 4 FOR NEE SOON TOWN COUNCIL (CONTRACT PERIOD – 10 MONTHS) (EMAIL ADDRESS : NRP-21-005-NS@emservices.com.sg),General Building (CW01) - $1.3 Million & above (C2),https://www.emservices.com.sg/wp-content/uploads/2021/05/27.5.2021.pdf
28/05/2021,21/06/2021,JALAN BESAR TOWN COUNCIL,REROOFING WORKS AND MODIFICATION & WATERPROOFING TREATMENT TO REFUSE CHUTES AT POTONG PASIR DIVISION (PART 2) FOR JALAN BESAR TOWN COUNCIL (CONTRACT PERIOD – 20 MONTHS) (EMAIL ADDRESS : RFG-21-008-JB@emservices.com.sg),General Building (CW01) - $4 Million & above (C1) OR Waterproofing Installation (CR13) - $4 Million & above (L3),https://www.emservices.com.sg/wp-content/uploads/2021/05/27.5.2021.pdf
28/05/2021,18/06/2021,JALAN BESAR TOWN COUNCIL,REROOFING WORKS AND MODIFICATION & WATERPROOFING TREATMENT TO REFUSE CHUTES AT POTONG PASIR DIVISION (PART 1) FOR JALAN BESAR TOWN COUNCIL (CONTRACT PERIOD – 20 MONTHS) (EMAIL ADDRESS : RFG-21-007-JB@emservices.com.sg),General Building (CW01) - $4 Million & above (C1) OR Waterproofing Installation (CR13) - $4 Million & above (L3),https://www.emservices.com.sg/wp-content/uploads/2021/05/27.5.2021.pdf
28/05/2021,18/06/2021,MARSILING-YEW TEE TOWN COUNCIL,REROOFING TO 26 BLOCKS IN LIMBANG AND WOODGROVE DIVISIONS FOR MARSILING-YEW TEE TOWN COUNCIL (CONTRACT PERIOD – 12 MONTHS)  (EMAIL ADDRESS: RFG-21-006-MYT@emservices.com.sg),Waterproofing Installation (CR13) - $1.3 Million & above (L2),https://www.emservices.com.sg/wp-content/uploads/2021/05/27.5.2021.pdf
21/05/2021,11/06/2021,TAMPINES TOWN COUNCIL,"CONSTRUCTION / UPGRADING OF RESIDENTS’ / SENIOR CITIZENS’ CORNER, NEIGHBOURS’ HUB, AWNING, COVERED LINKWAY, BASKETBALL COURT AND BANNER STRUCTURES AT TAMPINES CENTRAL, NORTH AND EAST DIVISIONS FOR TAMPINES TOWN COUNCIL (CONTRACT PERIOD – 12 MONTHS) (EMAIL ADDRESS : AA-21-007-TM@emservices.com.sg)",General Building (CW01) - $1.3 Million & above (C2),https://www.emservices.com.sg/wp-content/uploads/2021/05/21.5.2021.pdf
14/05/2021,04/06/2021,JALAN BESAR TOWN COUNCIL,ANCILLARY TENDER FOR NRP (BATCH 8) AT POTONG PASIR AVENUE 1 FOR JALAN BESAR TOWN COUNCIL (CONTRACT PERIOD – 6 MONTHS) (EMAIL ADDRESS : NRP-21-004-JB@emservices.com.sg),General Building (CW01) - $0.65 Million & above (C3),https://www.emservices.com.sg/wp-content/uploads/2021/05/14.5.2021.pdf
14/05/2021,04/06/2021,PASIR RIS-PUNGGOL TOWN COUNCIL,TERM CONTRACT FOR THE PROVISION OF SECURITY SERVICES FOR THE PERIOD 1 OCT 2021 TO 30 SEPTEMBER 2023 FOR PASIR RIS-PUNGGOL TOWN COUNCIL (EMAIL ADDRESS : BM-21-007-PRPG@emservices.com.sg),Security Services (EPU/SER/43) - $0.5 Million & above (S4),https://www.emservices.com.sg/wp-content/uploads/2021/05/14.5.2021.pdf
14/05/2021,09/06/2021,WEST COAST TOWN COUNCIL,REPLACEMENT AND COMPREHENSIVE MAINTENANCE OF ALERT ALARM SYSTEM (AAS) AT BLOCK 80B TELOK BLANGAH STREET 31 FOR WEST COAST TOWN COUNCIL (CONTRACT PERIOD – 7 MONTHS) (EMAIL ADDRESS : CYCL-21-010-WC@emservices.com.sg),Communication & Security Systems (ME04) - $4 Million & above (L3) OR Experienced Nurse Call System Contractors with relevant track records,https://www.emservices.com.sg/wp-content/uploads/2021/05/14.5.2021.pdf
07/05/2021,28/05/2021,HOLLAND-BUKIT PANJANG TOWN COUNCIL,REPAIRS AND REDECORATION TO 26 BLOCKS AT TOH YI DRIVE / SEGAR ROAD IN BUKIT TIMAH AND ZHENGHUA DIVISIONS FOR HOLLAND-BUKIT PANJANG TOWN COUNCIL (CONTRACT PERIOD – 20 MONTHS) (EMAIL ADDRESS : RR-21-013-HBP@emservices.com.sg),Repairs & Redecoration (CR09) - $13 Million & above (L5) (Tenderers are required to furnish a joint warranty for the paintwork),https://www.emservices.com.sg/wp-content/uploads/2021/05/7.5.2021.pdf
30/04/2021,21/05/2021,JALAN BESAR TOWN COUNCIL,REROOFING TO 2 BLOCKS AT KRETA AYER-KIM SENG DIVISION AND 3 BLOCKS AT WHAMPOA DIVISION FOR JALAN BESAR TOWN COUNCIL (CONTRACT PERIOD – 8 MONTHS)  (EMAIL ADDRESS : RFG-21-004-JB@emservices.com.sg),Waterproofing Installation (CR13) - $1.3 Million & above (L2),https://www.emservices.com.sg/wp-content/uploads/2021/04/30.4.2021.pdf
23/04/2021,14/05/2021,SEMBAWANG TOWN COUNCIL,SAFETY INSPECTION OF METAL SUNBREAKERS ON BUILDING FACADE OF 327 HDB BLOCKS IN SEMBAWANG GRC FOR SEMBAWANG TOWN COUNCIL (CONTRACT PERIOD – 6 MONTHS) (EMAIL ADDRESS : MISC-21-002-SB@emservices.com.sg),"Firms with Professional Civil & Structural Engineer, who are registered under PEB and are BCA-approved Competent Person for Periodic Façade Inspection",https://www.emservices.com.sg/wp-content/uploads/2021/04/23.4.2021.pdf
23/04/2021,21/05/2021,TANJONG PAGAR TOWN COUNCIL,NEIGHBOURHOOD RENEWAL PROGRAMME TO 12 BLOCKS AND REPAIRS & REDECORATION WORKS TO 11 BLOCKS AT REDHILL CLOSE / LANE AND BUKIT MERAH CENTRAL (RE-TENDER) FOR TANJONG PAGAR TOWN COUNCIL (CONTRACT PERIOD – 20 MONTHS) (EMAIL ADDRESS : NRP-21-003-TP@emservices.com.sg),General Building (CW01) - $13 Million & above (B2) AND Repairs & Redecoration (CR09) - $4 Million & above (L3) (Tenderers are required to furnish a joint warranty for the paintwork),https://www.emservices.com.sg/wp-content/uploads/2021/04/23.4.2021.pdf
23/04/2021,14/05/2021,PASIR RIS-PUNGGOL TOWN COUNCIL,TERM CONTRACT FOR THE MAINTENANCE OF TWO HUNDRED AND THIRTEEN (213) EXPRESS LIFTS AND AUTOMATIC RESCUE DEVICES (ARD) FOR PASIR RIS-PUNGGOL TOWN COUNCIL (EMAIL ADDRESS : BM-21-006-PRPG@emservices.com.sg),Lift & Escalator Installation (ME09) - $13 Million & above (L5),https://www.emservices.com.sg/wp-content/uploads/2021/04/23.4.2021.pdf
23/04/2021,14/05/2021,WEST COAST TOWN COUNCIL,"TERM CONTRACT FOR GRASSCUTTING, HORTICULTURE & ARBORICULTURE MAINTENANCE WORKS FOR THE PERIOD 1 OCT 2021 TO 30 SEP 2023 (ZONE 3) FOR              WEST COAST TOWN COUNCIL  (EMAIL ADDRESS : GH-21-002-WC@emservices.com.sg)",Landscaping (FM03) - $1.3 Million & above (L2),https://www.emservices.com.sg/wp-content/uploads/2021/04/23.4.2021.pdf
23/04/2021,18/05/2021,SENGKANG TOWN COUNCIL,TERM CONTRACT FOR CONSERVANCY & CLEANING WORKS FOR THE PERIOD 1 OCT 2021 TO 31 MAR 2024   (EMAIL ADDRESS : CON-21-003-SK@emservices.com.sg),"Housekeeping, Cleansing, Desilting and Conservancy Service (FM02) – $6.5 Million & above (L4) AND Minimum Clean Mark Silver Award under “NEA Enhanced Clean Mark Accreditation Scheme”",https://www.emservices.com.sg/wp-content/uploads/2021/04/23.4.2021-SKTC.pdf
23/04/2021,18/05/2021,SENGKANG TOWN COUNCIL,TERM CONTRACT FOR GRASSCUTTING & HORTICULTURAL MAINTENANCE WORKS FOR THE PERIOD 1 OCT 2021 TO 31 MAR 2024  (EMAIL ADDRESS : GH-21-001-SK@emservices.com.sg),Landscaping (FM03) - $4 Million & above (L3),https://www.emservices.com.sg/wp-content/uploads/2021/04/23.4.2021-SKTC.pdf
23/04/2021,14/05/2021,SENGKANG TOWN COUNCIL,TERM CONTRACT FOR MAINTENANCE OF COIN-OPERATED WATER DISPENSERS FOR THE PERIOD 1 OCT 2021 TO 31 MAR 2024  (EMAIL ADDRESS : BM-21-005-SK@emservices.com.sg),Mechanical Engineering (ME11) OR Plumbing and Sanitary Works (ME12) - $0.65 Million & above (L1) OR Experienced Contractor with relevant track record,https://www.emservices.com.sg/wp-content/uploads/2021/04/23.4.2021-SKTC.pdf
23/04/2021,14/05/2021,SENGKANG TOWN COUNCIL,TERM CONTRACT FOR SERVICING AND MAINTENANCE OF FIRE PROTECTION SYSTEMS (INCLUDING STANDBY GENERATORS SERVING THE FIRE PROTECTION AND VENTILATION SYSTEMS) FOR THE PERIOD 1 OCT 2021 TO 31 MAR 2024   (EMAIL ADDRESS : BM-21-004-SK@emservices.com.sg),Fire Prevention and Protection Systems (ME06)  - $1.3 Million & above (L2),https://www.emservices.com.sg/wp-content/uploads/2021/04/23.4.2021-SKTC.pdf
23/04/2021,14/05/2021,SENGKANG TOWN COUNCIL,"TERM CONTRACT FOR SANITARY, PLUMBING WORKS AND CLEANING, REPAINTING & STERILIZATION OF WATER TANKS FOR THE PERIOD 1 OCT 2021 TO 31 MAR 2024   (EMAIL ADDRESS : BM-21-003-SK@emservices.com.sg)",Plumbing and Sanitary Works (ME12) - $4 Million & above (L3),https://www.emservices.com.sg/wp-content/uploads/2021/04/23.4.2021-SKTC.pdf
23/04/2021,14/05/2021,SENGKANG TOWN COUNCIL,TERM CONTRACT FOR PROVISION OF SECURITY SERVICES FOR THE PERIOD 1 OCT 2021 TO 31 MAR 2024  (EMAIL ADDRESS : BM-21-002-SK@emservices.com.sg),Security Services (EPU/SER 43) - $0.5 Million & above (S4),https://www.emservices.com.sg/wp-content/uploads/2021/04/23.4.2021-SKTC.pdf
23/04/2021,14/05/2021,SENGKANG TOWN COUNCIL,TERM CONTRACT FOR RAT CULLING FOR THE PERIOD 1 NOV 2021 TO 31 MAR 2024  (EMAIL ADDRESS : BM-21-001-SK@emservices.com.sg),Pest Control (FM04) - $1.3 Million & above (L2),https://www.emservices.com.sg/wp-content/uploads/2021/04/23.4.2021-SKTC.pdf
16/04/2021,11/05/2021,TAMPINES TOWN COUNCIL,REPAIRS AND REDECORATION TO 38 BLOCKS AND PERIODIC FAÇADE INSPECTION AND REPAIRS TO 47 BLOCKS IN TAMPINES WEST DIVISION FOR TAMPINES TOWN COUNCIL (CONTRACT PERIOD – 18 MONTHS)  (EMAIL ADDRESS : RR-21-012-TM@emservices.com.sg),Repairs and Redecoration (CR09) - $6.5 Million & above (L4) (Tenderers are required to furnish a joint warranty for the paintwork),https://www.emservices.com.sg/wp-content/uploads/2021/04/16.4.2021.pdf
16/04/2021,07/05/2021,JALAN BESAR TOWN COUNCIL,REROOFING WORKS TO 13 BLOCKS AT JOO SENG ROAD FOR JALAN BESAR TOWN COUNCIL (CONTRACT PERIOD – 9 MONTHS) (EMAIL ADDRESS : RFG-21-003-JB@emservices.com.sg),Waterproofing Installation (CR13) - $1.3 Million & above (L2),https://www.emservices.com.sg/wp-content/uploads/2021/04/16.4.2021.pdf
16/04/2021,07/05/2021,WEST COAST TOWN COUNCIL,TERM CONTRACT FOR CONSERVANCY AND CLEANING WORKS IN ZONE NY FOR THE PERIOD 1 OCT 2021 TO 31 MAR 2024 FOR WEST COAST TOWN COUNCIL  (EMAIL ADDRESS : CON-21-002-WC@emservices.com.sg),"Housekeeping, Cleansing, Desilting & Conservancy Service (FM02) - $4 Million & above (L3) AND Minimum Clean Mark Silver Award under “NEA Enhanced Clean Mark Accreditation Scheme”",https://www.emservices.com.sg/wp-content/uploads/2021/04/16.4.2021.pdf
09/04/2021,30/04/2021,SENGKANG TOWN COUNCIL,PRE-QUALIFICATION FOR SENGKANG TOWN COUNCIL’S PANEL OF ARCHITECTS FOR 1 JUL 2021 TO 30 JUN 2024 (EMAIL ADDRESS : PQ-21-001-SK@emservices.com.sg),"Only architectural firms whose principal architects are registered architects with the Board of Architects, Singapore are eligible to particpate",https://www.emservices.com.sg/wp-content/uploads/2021/04/9.4.2021.pdf
02/04/2021,23/04/2021,TAMPINES TOWN COUNCIL,REROOFING WORKS TO 40 BLOCKS IN TAMPINES NORTH AND TAMPINES EAST DIVISIONS FOR TAMPINES TOWN COUNCIL (CONTRACT PERIOD – 16 MONTHS)  (EMAIL ADDRESS : RFG-21-002-TM@emservices.com.sg),Waterproofing Installation (CR13) - $4 Million & above (L3),https://www.emservices.com.sg/wp-content/uploads/2021/04/2.4.2021.pdf
26/03/2021,16/04/2021,WEST COAST TOWN COUNCIL,"TERM CONTRACT FOR DESIGN, PRINTING AND DELIVERY OF NEWSLETTERS FOR WEST COAST TOWN COUNCIL FOR THE PERIOD 1 SEP 2021 TO 31 AUG 2023 (24 MONTHS)   (EMAIL ADDRESS : ES-21-001-WC@emservices.com.sg)","Stationery & Printing & Photocopying Services (EPU/STA/10) OR Advertising, Graphics Services (EPU/SER/18) - $0.5 Million & above (S4)",https://www.emservices.com.sg/wp-content/uploads/2021/03/26.3.2021.pdf
26/03/2021,16/04/2021,TANJONG PAGAR TOWN COUNCIL,FAÇADE REPAIR WORKS AT BLOCKS 7 AND 8 KIM TIAN ROAD FOR TANJONG PAGAR TOWN COUNCIL (CONTRACT PERIOD – 4 MONTHS) (EMAIL ADDRESS : AA-21-005-TP@emservices.com.sg),General Building (CW01) - $1.3 Million & above (C2),https://www.emservices.com.sg/wp-content/uploads/2021/03/26.3.2021.pdf
26/03/2021,16/04/2021,TANJONG PAGAR TOWN COUNCIL,REROOFING WORKS TO 19 BLOCKS AT REDHILL CLOSE AND COMMONWEALTH CRESCENT FOR TANJONG PAGAR TOWN COUNCIL (CONTRACT PERIOD – 12 MONTHS) (EMAIL ADDRESS : RFG-21-012-TP@emservices.com.sg),Waterproofing Installation (CR13) - $4 Million & above (L3),https://www.emservices.com.sg/wp-content/uploads/2021/03/26.3.2021.pdf
26/03/2021,16/04/2021,EAST COAST TOWN COUNCIL,REPAIRS AND REDECORATION TO 17 BLOCKS AT BEDOK RESERVOIR VIEW AND NEW UPPER CHANGI ROAD FOR EAST COAST TOWN COUNCIL (CONTRACT PERIOD – 12 MONTHS) (EMAIL ADDRESS : RR-21-011-EC@emservices.com.sg),Repairs & Redecoration (CR09) - $4 Million & above (L3) (Tenderers are required to furnish a single warranty for the paintwork),https://www.emservices.com.sg/wp-content/uploads/2021/03/26.3.2021.pdf
19/03/2021,09/04/2021,TANJONG PAGAR TOWN COUNCIL,REPLACEMENT OF REFUSE HANDLING PLANT TO 36 BLOCKS FOR TANJONG PAGAR TOWN COUNCIL (CONTRACT PERIOD – 8 MONTHS) (EMAIL ADDRESS : CYCL-21-009-TP@emservices.com.sg),"Mechanical Engineering (ME11) OR Mechanical Equipment, Plant & Machinery (SY08) - $1.3 Million & above (L2)",https://www.emservices.com.sg/wp-content/uploads/2021/03/19.3.2021.pdf
19/03/2021,09/04/2021,TANJONG PAGAR TOWN COUNCIL,REPLACEMENT OF WATER PUMPSETS TO 58 BLOCKS AND BOOSTER PUMPSETS TO 83 BLOCKS FOR TANJONG PAGAR TOWN COUNCIL (CONTRACT PERIOD – 12 MONTHS) (EMAIL ADDRESS : CYCL-21-008-TP@emservices.com.sg),Mechanical Engineering (ME11) OR Plumbing & Sanitary Works (ME12) - $1.3 Million & above (L2),https://www.emservices.com.sg/wp-content/uploads/2021/03/19.3.2021.pdf
19/03/2021,09/04/2021,TANJONG PAGAR TOWN COUNCIL,"REPLACEMENT OF WATER PIPES TO 12 BLOCKS AT HENDERSON-DAWSON, RADIN MAS AND QUEENSTOWN DIVISIONS FOR TANJONG PAGAR TOWN COUNCIL (CONTRACT PERIOD – 7 MONTHS) (EMAIL ADDRESS : WP-21-002-TP@emservices.com.sg)",Mechanical Engineering (ME11) OR Plumbing & Sanitary Works (ME12) - $0.65 Million & above (L1),https://www.emservices.com.sg/wp-content/uploads/2021/03/19.3.2021.pdf
19/03/2021,16/04/2021,TAMPINES TOWN COUNCIL,ELECTRICAL LOAD UPGRADING FOR 4 BLOCKS AT BLOCK 124 TO 127 TAMPINES STREET 11 FOR TAMPINES TOWN COUNCIL (CONTRACT PERIOD – 24 MONTHS) (EMAIL ADDRESS : ELU-21-002-TM@emservices.com.sg),General Building (CW01) - $1.3 Million & above (C2) OR Electrical Engineering (ME05) - $1.3 Million & above (L2),https://www.emservices.com.sg/wp-content/uploads/2021/03/19.3.2021.pdf
